{
    "_links": {
        "self": {
            "href": "http:\/\/default\/node\/8?_format=hal_json"
        },
        "type": {
            "href": "http:\/\/drupal.org\/rest\/type\/node\/course"
        },
        "http:\/\/drupal.org\/rest\/relation\/node\/course\/uid": [
            {
                "href": "http:\/\/default\/user\/1?_format=hal_json"
            }
        ],
        "http:\/\/drupal.org\/rest\/relation\/node\/course\/revision_uid": [
            {
                "href": "http:\/\/default\/user\/1?_format=hal_json"
            }
        ]
    },
    "nid": [
        {
            "value": 8
        }
    ],
    "uuid": [
        {
            "value": "1d0aa44a-2fa0-48fd-9933-185164d7ec77"
        }
    ],
    "vid": [
        {
            "value": 8
        }
    ],
    "type": [
        {
            "target_id": "course"
        }
    ],
    "status": [
        {
            "value": true
        }
    ],
    "title": [
        {
            "value": "Biology (B.S.), Biomedical Concentration"
        }
    ],
    "_embedded": {
        "http:\/\/drupal.org\/rest\/relation\/node\/course\/uid": [
            {
                "_links": {
                    "self": {
                        "href": "http:\/\/default\/user\/1?_format=hal_json"
                    },
                    "type": {
                        "href": "http:\/\/drupal.org\/rest\/type\/user\/user"
                    }
                },
                "uuid": [
                    {
                        "value": "5aef157e-2748-4e6d-8ee5-a7320424a21e"
                    }
                ]
            }
        ],
        "http:\/\/drupal.org\/rest\/relation\/node\/course\/revision_uid": [
            {
                "_links": {
                    "self": {
                        "href": "http:\/\/default\/user\/1?_format=hal_json"
                    },
                    "type": {
                        "href": "http:\/\/drupal.org\/rest\/type\/user\/user"
                    }
                },
                "uuid": [
                    {
                        "value": "5aef157e-2748-4e6d-8ee5-a7320424a21e"
                    }
                ]
            }
        ]
    },
    "created": [
        {
            "value": 1494300858
        }
    ],
    "changed": [
        {
            "value": 1496161463
        }
    ],
    "promote": [
        {
            "value": true
        }
    ],
    "sticky": [
        {
            "value": false
        }
    ],
    "revision_timestamp": [
        {
            "value": 1494957643
        }
    ],
    "revision_translation_affected": [
        {
            "value": true
        }
    ],
    "body": [
        {
            "value": "<p dir=\"ltr\">Nulla gravida accumsan neque, et dignissim libero egestas ac. Integer augue neque, lacinia et tincidunt in, aliquam ut urna. Duis commodo neque eget nisi gravida mollis. Fusce dapibus eros nec urna rutrum, id varius felis laoreet. Duis sed suscipit risus. Sed blandit porta metus, blandit efficitur nunc faucibus quis.<\/p>\r\n",
            "format": "rich_text",
            "summary": ""
        }
    ]
}
