{
    "_links": {
        "self": {
            "href": "http:\/\/default\/404?_format=hal_json"
        },
        "type": {
            "href": "http:\/\/drupal.org\/rest\/type\/node\/page"
        },
        "http:\/\/drupal.org\/rest\/relation\/node\/page\/uid": [
            {
                "href": "http:\/\/default\/user\/1?_format=hal_json"
            }
        ],
        "http:\/\/drupal.org\/rest\/relation\/node\/page\/revision_uid": [
            {
                "href": "http:\/\/default\/user\/1?_format=hal_json"
            }
        ]
    },
    "nid": [
        {
            "value": 112
        }
    ],
    "uuid": [
        {
            "value": "50b2a754-d763-417f-964c-f80f3b954013"
        }
    ],
    "vid": [
        {
            "value": 115
        }
    ],
    "type": [
        {
            "target_id": "page"
        }
    ],
    "status": [
        {
            "value": true
        }
    ],
    "title": [
        {
            "value": "404"
        }
    ],
    "_embedded": {
        "http:\/\/drupal.org\/rest\/relation\/node\/page\/uid": [
            {
                "_links": {
                    "self": {
                        "href": "http:\/\/default\/user\/1?_format=hal_json"
                    },
                    "type": {
                        "href": "http:\/\/drupal.org\/rest\/type\/user\/user"
                    }
                },
                "uuid": [
                    {
                        "value": "5aef157e-2748-4e6d-8ee5-a7320424a21e"
                    }
                ]
            }
        ],
        "http:\/\/drupal.org\/rest\/relation\/node\/page\/revision_uid": [
            {
                "_links": {
                    "self": {
                        "href": "http:\/\/default\/user\/1?_format=hal_json"
                    },
                    "type": {
                        "href": "http:\/\/drupal.org\/rest\/type\/user\/user"
                    }
                },
                "uuid": [
                    {
                        "value": "5aef157e-2748-4e6d-8ee5-a7320424a21e"
                    }
                ]
            }
        ]
    },
    "created": [
        {
            "value": 1494872696
        }
    ],
    "changed": [
        {
            "value": 1494872891
        }
    ],
    "promote": [
        {
            "value": false
        }
    ],
    "sticky": [
        {
            "value": false
        }
    ],
    "revision_timestamp": [
        {
            "value": 1494872891
        }
    ],
    "revision_translation_affected": [
        {
            "value": true
        }
    ],
    "path": [
        {
            "alias": "\/404",
            "pid": 3
        }
    ],
    "moderation_state": [
        {
            "target_id": "published"
        }
    ],
    "body": [
        {
            "value": "<h2>Sorry, but the page you were trying to view does not exist.<\/h2>\r\n",
            "format": "rich_text",
            "summary": ""
        }
    ]
}
