{
    "_links": {
        "self": {
            "href": "http:\/\/default\/news\/rare-medieval-text-found-university-archives?_format=hal_json"
        },
        "type": {
            "href": "http:\/\/drupal.org\/rest\/type\/node\/news"
        },
        "http:\/\/drupal.org\/rest\/relation\/node\/news\/uid": [
            {
                "href": "http:\/\/default\/user\/1?_format=hal_json"
            }
        ],
        "http:\/\/drupal.org\/rest\/relation\/node\/news\/revision_uid": [
            {
                "href": "http:\/\/default\/user\/1?_format=hal_json"
            }
        ],
        "http:\/\/drupal.org\/rest\/relation\/node\/news\/field_news_categories": [
            {
                "href": "http:\/\/default\/taxonomy\/term\/10?_format=hal_json"
            }
        ],
        "http:\/\/drupal.org\/rest\/relation\/node\/news\/field_news_image": [
            {
                "href": "http:\/\/default\/sites\/default\/files\/pexels-photo-256424_7_1.jpeg"
            }
        ],
        "http:\/\/drupal.org\/rest\/relation\/node\/news\/field_news_related": [
            {
                "href": "http:\/\/default\/news\/faculty-groups-promote-increased-stem-research?_format=hal_json"
            },
            {
                "href": "http:\/\/default\/news\/new-treatments-being-developed-student-researchers?_format=hal_json"
            }
        ]
    },
    "nid": [
        {
            "value": 48
        }
    ],
    "uuid": [
        {
            "value": "afa333d1-c758-4a78-a8bc-9a13ad85e16a"
        }
    ],
    "vid": [
        {
            "value": 48
        }
    ],
    "type": [
        {
            "target_id": "news"
        }
    ],
    "status": [
        {
            "value": true
        }
    ],
    "title": [
        {
            "value": "Rare medieval text found in university archives"
        }
    ],
    "_embedded": {
        "http:\/\/drupal.org\/rest\/relation\/node\/news\/uid": [
            {
                "_links": {
                    "self": {
                        "href": "http:\/\/default\/user\/1?_format=hal_json"
                    },
                    "type": {
                        "href": "http:\/\/drupal.org\/rest\/type\/user\/user"
                    }
                },
                "uuid": [
                    {
                        "value": "5aef157e-2748-4e6d-8ee5-a7320424a21e"
                    }
                ]
            }
        ],
        "http:\/\/drupal.org\/rest\/relation\/node\/news\/revision_uid": [
            {
                "_links": {
                    "self": {
                        "href": "http:\/\/default\/user\/1?_format=hal_json"
                    },
                    "type": {
                        "href": "http:\/\/drupal.org\/rest\/type\/user\/user"
                    }
                },
                "uuid": [
                    {
                        "value": "5aef157e-2748-4e6d-8ee5-a7320424a21e"
                    }
                ]
            }
        ],
        "http:\/\/drupal.org\/rest\/relation\/node\/news\/field_news_categories": [
            {
                "_links": {
                    "self": {
                        "href": "http:\/\/default\/taxonomy\/term\/10?_format=hal_json"
                    },
                    "type": {
                        "href": "http:\/\/drupal.org\/rest\/type\/taxonomy_term\/news_categories"
                    }
                },
                "uuid": [
                    {
                        "value": "4037bd29-2b78-4879-810e-e7ccf1be3aec"
                    }
                ]
            }
        ],
        "http:\/\/drupal.org\/rest\/relation\/node\/news\/field_news_image": [
            {
                "_links": {
                    "self": {
                        "href": "http:\/\/default\/sites\/default\/files\/pexels-photo-256424_7_1.jpeg"
                    },
                    "type": {
                        "href": "http:\/\/drupal.org\/rest\/type\/file\/file"
                    }
                },
                "uuid": [
                    {
                        "value": "28dcd140-ba07-422e-bb1f-7716c6e87971"
                    }
                ],
                "alt": "Old Book",
                "title": "The text is written in medieval Latin and features blackletter typeface, layout and red paragraph that marks it out as an example of very early western European printing.",
                "width": "1920",
                "height": "1280"
            }
        ],
        "http:\/\/drupal.org\/rest\/relation\/node\/news\/field_news_related": [
            {
                "_links": {
                    "self": {
                        "href": "http:\/\/default\/news\/faculty-groups-promote-increased-stem-research?_format=hal_json"
                    },
                    "type": {
                        "href": "http:\/\/drupal.org\/rest\/type\/node\/news"
                    }
                },
                "uuid": [
                    {
                        "value": "b8215089-cdf4-4d7d-8f12-e80c69a84f7b"
                    }
                ]
            },
            {
                "_links": {
                    "self": {
                        "href": "http:\/\/default\/news\/new-treatments-being-developed-student-researchers?_format=hal_json"
                    },
                    "type": {
                        "href": "http:\/\/drupal.org\/rest\/type\/node\/news"
                    }
                },
                "uuid": [
                    {
                        "value": "6beb4b69-69aa-4b8e-94b3-0d5476684096"
                    }
                ]
            }
        ]
    },
    "created": [
        {
            "value": 1494230374
        }
    ],
    "changed": [
        {
            "value": 1496160797
        }
    ],
    "promote": [
        {
            "value": true
        }
    ],
    "sticky": [
        {
            "value": false
        }
    ],
    "revision_timestamp": [
        {
            "value": 1494265564
        }
    ],
    "revision_translation_affected": [
        {
            "value": true
        }
    ],
    "path": [
        {
            "alias": "\/news\/rare-medieval-text-found-university-archives",
            "pid": 29
        }
    ],
    "body": [
        {
            "value": "<p>In ac posuere purus. Vivamus suscipit purus sit amet vulputate pretium. Vestibulum sit amet libero ut nisl ultrices tristique. Duis eget enim non elit eleifend lacinia. Aliquam erat volutpat. Maecenas risus justo, consequat at eros sed, imperdiet feugiat velit. Vestibulum sed orci erat.<\/p>\r\n\r\n<blockquote>\r\n<p>Vivamus dapibus efficitur odio, sit amet consequat mauris venenatis ut.<\/p>\r\n<\/blockquote>\r\n\r\n<p>Nulla consectetur nisl risus, ac feugiat erat commodo eget. Nullam eu nulla ac augue hendrerit fringilla vel a orci. Nunc sapien dolor, fringilla sed aliquet sit amet, posuere sit amet nibh. Ut dolor lacus, tempus id ex eget, varius dapibus leo.<\/p>\r\n\r\n<p>Etiam laoreet felis eget massa viverra, eu tempor orci vestibulum. Suspendisse potenti. Nam at ex in neque mattis scelerisque et id risus. Pellentesque suscipit metus iaculis urna iaculis, id lacinia est auctor. In vulputate blandit ullamcorper. In ligula arcu, ullamcorper sed aliquam sed, convallis quis nunc. Curabitur vel sapien pulvinar, sodales orci consequat, sollicitudin lectus. Nullam condimentum viverra lectus faucibus tempor.<\/p>\r\n\r\n<p>Aenean elementum fermentum scelerisque. Nunc non quam massa. Proin lacinia placerat ligula sit amet fringilla. Suspendisse potenti. Morbi laoreet imperdiet metus, in condimentum nibh mattis vel. Ut semper fringilla libero vitae tristique. Nam ut ornare est.<\/p>\r\n\r\n<p>Vivamus laoreet odio eget dolor pretium aliquam. Mauris ultricies fringilla nunc, ac interdum magna porttitor nec. Vivamus turpis lectus, finibus a lectus sit amet, vestibulum elementum erat. Morbi at justo accumsan, fermentum orci et, consectetur purus. Morbi cursus volutpat rhoncus. Aliquam vitae quam quis augue tristique elementum. Integer nec nunc quis nisl rutrum suscipit. Phasellus tellus felis, imperdiet quis risus et, eleifend volutpat ex.<\/p>\r\n\r\n<p>Aliquam sit amet ligula id nisi dapibus mollis. Phasellus quis dapibus ligula. Cras neque odio, dignissim non hendrerit id, lobortis at augue. Mauris porta ipsum vitae purus maximus auctor. Mauris a iaculis sem. Morbi sit amet ligula et quam tincidunt semper. Nunc ac purus non sapien semper condimentum. Aliquam erat volutpat.<\/p>\r\n\r\n<p class=\"text-align-right\">&nbsp;<\/p>\r\n",
            "format": "rich_text",
            "summary": ""
        }
    ],
    "field_news_date": [
        {
            "value": "2016-12-26"
        }
    ],
    "field_news_featured": [
        {
            "value": false
        }
    ]
}
