{
    "_links": {
        "self": {
            "href": "http:\/\/default\/profile-list\/glenn-hilton?_format=hal_json"
        },
        "type": {
            "href": "http:\/\/drupal.org\/rest\/type\/node\/profile"
        },
        "http:\/\/drupal.org\/rest\/relation\/node\/profile\/uid": [
            {
                "href": "http:\/\/default\/user\/1?_format=hal_json"
            }
        ],
        "http:\/\/drupal.org\/rest\/relation\/node\/profile\/revision_uid": [
            {
                "href": "http:\/\/default\/user\/1?_format=hal_json"
            }
        ],
        "http:\/\/drupal.org\/rest\/relation\/node\/profile\/field_profile_department": [
            {
                "href": "http:\/\/default\/node\/109?_format=hal_json"
            },
            {
                "href": "http:\/\/default\/node\/110?_format=hal_json"
            }
        ],
        "http:\/\/drupal.org\/rest\/relation\/node\/profile\/field_profile_image": [
            {
                "href": "http:\/\/default\/sites\/default\/files\/2017-05\/Glenn-Hilton_7_1.png"
            }
        ],
        "http:\/\/drupal.org\/rest\/relation\/node\/profile\/field_profile_research_interests": [
            {
                "href": "http:\/\/default\/taxonomy\/term\/19?_format=hal_json"
            }
        ]
    },
    "nid": [
        {
            "value": 19
        }
    ],
    "uuid": [
        {
            "value": "c56794d5-df8f-47f0-9ed6-fd54c1848991"
        }
    ],
    "vid": [
        {
            "value": 19
        }
    ],
    "type": [
        {
            "target_id": "profile"
        }
    ],
    "status": [
        {
            "value": true
        }
    ],
    "title": [
        {
            "value": "Glenn Hilton"
        }
    ],
    "_embedded": {
        "http:\/\/drupal.org\/rest\/relation\/node\/profile\/uid": [
            {
                "_links": {
                    "self": {
                        "href": "http:\/\/default\/user\/1?_format=hal_json"
                    },
                    "type": {
                        "href": "http:\/\/drupal.org\/rest\/type\/user\/user"
                    }
                },
                "uuid": [
                    {
                        "value": "5aef157e-2748-4e6d-8ee5-a7320424a21e"
                    }
                ]
            }
        ],
        "http:\/\/drupal.org\/rest\/relation\/node\/profile\/revision_uid": [
            {
                "_links": {
                    "self": {
                        "href": "http:\/\/default\/user\/1?_format=hal_json"
                    },
                    "type": {
                        "href": "http:\/\/drupal.org\/rest\/type\/user\/user"
                    }
                },
                "uuid": [
                    {
                        "value": "5aef157e-2748-4e6d-8ee5-a7320424a21e"
                    }
                ]
            }
        ],
        "http:\/\/drupal.org\/rest\/relation\/node\/profile\/field_profile_department": [
            {
                "_links": {
                    "self": {
                        "href": "http:\/\/default\/node\/109?_format=hal_json"
                    },
                    "type": {
                        "href": "http:\/\/drupal.org\/rest\/type\/node\/department"
                    }
                },
                "uuid": [
                    {
                        "value": "1fe1c90f-807b-49af-8717-6c3a899c313a"
                    }
                ]
            },
            {
                "_links": {
                    "self": {
                        "href": "http:\/\/default\/node\/110?_format=hal_json"
                    },
                    "type": {
                        "href": "http:\/\/drupal.org\/rest\/type\/node\/department"
                    }
                },
                "uuid": [
                    {
                        "value": "6446420c-f6d1-44e3-a73e-e76131b3c93a"
                    }
                ]
            }
        ],
        "http:\/\/drupal.org\/rest\/relation\/node\/profile\/field_profile_image": [
            {
                "_links": {
                    "self": {
                        "href": "http:\/\/default\/sites\/default\/files\/2017-05\/Glenn-Hilton_7_1.png"
                    },
                    "type": {
                        "href": "http:\/\/drupal.org\/rest\/type\/file\/file"
                    }
                },
                "uuid": [
                    {
                        "value": "6dfb3865-229b-42c5-a899-20211322fdde"
                    }
                ],
                "alt": "Glenn Hilton",
                "title": "",
                "width": "364",
                "height": "417"
            }
        ],
        "http:\/\/drupal.org\/rest\/relation\/node\/profile\/field_profile_research_interests": [
            {
                "_links": {
                    "self": {
                        "href": "http:\/\/default\/taxonomy\/term\/19?_format=hal_json"
                    },
                    "type": {
                        "href": "http:\/\/drupal.org\/rest\/type\/taxonomy_term\/interests"
                    }
                },
                "uuid": [
                    {
                        "value": "06408782-fbf4-4e2a-beb8-541350a86562"
                    }
                ]
            }
        ]
    },
    "created": [
        {
            "value": 1494105216
        }
    ],
    "changed": [
        {
            "value": 1496175575
        }
    ],
    "promote": [
        {
            "value": false
        }
    ],
    "sticky": [
        {
            "value": false
        }
    ],
    "revision_timestamp": [
        {
            "value": 1494265564
        }
    ],
    "revision_translation_affected": [
        {
            "value": true
        }
    ],
    "path": [
        {
            "alias": "\/profile-list\/glenn-hilton",
            "pid": 15
        }
    ],
    "body": [
        {
            "value": "<p>Glenn is the Founder and CEO of ImageX. He started the company in 2001 as a full service media firm but in the early days of the growing social web, Glenn's love for combining the creative with community prompted him to transition the agency to its current position as one of the premiere web design, consulting and development firms in the world.<\/p>\r\n\r\n<blockquote>\r\n<p><strong>Glenn on Drupal:&nbsp;<\/strong><a href=\"http:\/\/drupal.org\/\">Drupal<\/a>&nbsp;offers unparalleled flexibility, meaning the sky's the limit for great design and there's little that it can't do technically. It's exciting to be a part of growing, thriving community where you can contribute and help continually improve your clients offerings with the most powerful open open source solution on the Planet.<\/p>\r\n<\/blockquote>\r\n\r\n<p>Glenn's role at ImageX encompasses company vision, leadership oversight and strategic partnerships and he is constantly on the look out for A level talent to join their growing team at their offices in Vancouver, Canada and Kiev, Ukraine. He is passionate about open source and has been an active participant in the Drupal community for over a decade. Glenn understands that relationships are the key to success, his personal mission is to enable each ImageX team member reach his or her full potential so they can help build powerful, user centric solutions to enable ImageX's clients to grow and deliver results.<\/p>\r\n",
            "format": "rich_text",
            "summary": ""
        }
    ],
    "field_profile_courses": [
        {
            "value": "English 112"
        }
    ],
    "field_profile_education": [
        {
            "value": "Ph.D., Literature, Harvard University, Cambridge, 2005"
        }
    ],
    "field_profile_email": [
        {
            "value": "glenn@imagexmedia.com"
        }
    ],
    "field_profile_job_title": [
        {
            "value": "The President and Founder of IXU"
        }
    ],
    "field_profile_name": [
        {
            "title": null,
            "given": "Glenn",
            "middle": null,
            "family": "Hilton",
            "generational": null,
            "credentials": null
        }
    ],
    "field_profile_office": [
        {
            "value": "163 W. Hastings Street, Suite 405, Vancouver, BC, V6B 1H5, Canada"
        }
    ],
    "field_profile_phone": [
        {
            "value": "1.778.785.1547"
        }
    ],
    "field_profile_publications": [
        {
            "value": "<h3>Vestibulum pharetra ante non nisi molestie, ut tempus quam gravida \u2013 May 4 2016<\/h3>\r\n\r\n<p>by Gary Nance (Editor)<\/p>\r\n",
            "format": "rich_text"
        },
        {
            "value": "<h3>Vestibulum pharetra ante non nisi molestie, ut tempus quam gravida&nbsp;\u2013 Oct 1 1984<\/h3>\r\n\r\n<p>by Tommy Juneu&nbsp;(Author)<\/p>\r\n",
            "format": "rich_text"
        },
        {
            "value": "<h3>Vestibulum pharetra ante non nisi molestie, ut tempus quam gravida&nbsp;\u2013 Nov 1 2016<\/h3>\r\n\r\n<p>by David Ames&nbsp;(Author, Contributor)<\/p>\r\n",
            "format": "rich_text"
        }
    ],
    "field_profile_research_projects": [
        {
            "value": "<h3>Development in Nepal.<\/h3>\r\n\r\n<p><strong>Principal Investigator:<\/strong> Linn Souza<\/p>\r\n\r\n<p><strong>Supervisor:<\/strong> Ted James, MD, professor of surgery.<\/p>\r\n",
            "format": "rich_text"
        },
        {
            "value": "<h3>Vestibulum pharetra ante non nisi molestie, ut tempus quam gravida.<\/h3>\r\n\r\n<p><strong>Principal Investigator:&nbsp;<\/strong>John Case<\/p>\r\n\r\n<p><strong>Supervisor:<\/strong>&nbsp;Tim Chang, MD, associate professor of science.<\/p>\r\n",
            "format": "rich_text"
        },
        {
            "value": "<h3>True Stories Well Told<\/h3>\r\n\r\n<p>Vestibulum pharetra ante non nisi molestie, ut tempus quam gravida.&nbsp;<\/p>\r\n\r\n<p><strong>Principal Investigator:<\/strong> L. Green<\/p>\r\n",
            "format": "rich_text"
        }
    ],
    "field_profile_students": [
        {
            "value": "<ul>\r\n\t<li>Les Cordell<\/li>\r\n\t<li>Yuriy Gerasimov<\/li>\r\n\t<li>Gavin Graham<\/li>\r\n\t<li>Bryan Heredia<\/li>\r\n\t<li>Erin Joyce<\/li>\r\n\t<li>Travis Ketler<\/li>\r\n<\/ul>\r\n",
            "format": "rich_text"
        }
    ],
    "field_profile_type": [
        {
            "value": "faculty"
        }
    ]
}
